 , lang   , manager    , create , read , update , backup , delete ,
 , zsh    ,  antigen   ,        ,      ,        ,        ,        ,
 , nodejs ,  npx       ,        ,      ,        ,        ,        ,
 , nodejs ,  npm       ,        ,      ,        ,        ,        ,
 , nodejs ,  yarn      ,        ,      ,        ,        ,        ,
 , php    ,  composer  ,        ,      ,        ,        ,        ,
 , go     ,  dep       ,        ,      ,        ,        ,        ,
 , lua    ,  luarocks  ,        ,      ,        ,        ,        ,
 , python ,  pipenv    ,        ,      ,        ,        ,        ,
 , dart   ,            ,        ,      ,        ,        ,        ,

