 , pkgs          , create , read , update , backup , delete ,
 , cuapk
 ,QuasarJS       
 ,Quasar CLI     
 ,Express        
 ,Mongoose       
 ,Bcryptjs       
 ,Jsonwebtoken   
 ,Helmet         
 ,Express-session
 ,Body-parser    
 ,Cors           
 ,Axios          
 ,Moment         
 ,Chart.js       
 ,Sweetalert2    
 ,Nodemailer     
