<?xml version="1.0" encoding="UTF-8" standalone="no"?>
<!-- Created with Inkscape (http://www.inkscape.org/) -->

<svg
   width="41.5mm"
   height="16.5mm"
   viewBox="0 0 41.5 16.5"
   version="1.1"
   id="svg18010"
   inkscape:version="1.2.2 (b0a8486541, 2022-12-01)"
   sodipodi:docname="donateBitcoin.svg"
   xmlns:inkscape="http://www.inkscape.org/namespaces/inkscape"
   xmlns:sodipodi="http://sodipodi.sourceforge.net/DTD/sodipodi-0.dtd"
   xmlns="http://www.w3.org/2000/svg"
   xmlns:svg="http://www.w3.org/2000/svg">
  <sodipodi:namedview
     id="namedview18012"
     pagecolor="#505050"
     bordercolor="#ffffff"
     borderopacity="1"
     inkscape:showpageshadow="0"
     inkscape:pageopacity="0"
     inkscape:pagecheckerboard="1"
     inkscape:deskcolor="#505050"
     inkscape:document-units="mm"
     showgrid="false"
     inkscape:zoom="8.5548611"
     inkscape:cx="75.629515"
     inkscape:cy="34.015748"
     inkscape:window-width="1536"
     inkscape:window-height="791"
     inkscape:window-x="0"
     inkscape:window-y="0"
     inkscape:window-maximized="1"
     inkscape:current-layer="layer1" />
  <defs
     id="defs18007">
    <filter
       inkscape:label="Button"
       inkscape:menu="Bevels"
       inkscape:menu-tooltip="Soft bevel, slightly depressed middle"
       style="color-interpolation-filters:sRGB"
       id="filter247-1-5"
       x="-0.15885902"
       y="-0.4303074"
       width="1.317718"
       height="1.8606148">
      <feGaussianBlur
         stdDeviation="2.3"
         in="SourceAlpha"
         result="result0"
         id="feGaussianBlur221-8-4" />
      <feMorphology
         in="SourceAlpha"
         radius="6.6"
         result="result1"
         id="feMorphology223-7-7" />
      <feGaussianBlur
         stdDeviation="8.9"
         in="result1"
         id="feGaussianBlur225-9-4" />
      <feColorMatrix
         values="1 0 0 0 0 0 1 0 0 0 0 0 1 0 0 0 0 0 0.3 0"
         result="result91"
         id="feColorMatrix227-2-4" />
      <feComposite
         in="result0"
         operator="out"
         result="result2"
         in2="result91"
         id="feComposite229-0-3" />
      <feGaussianBlur
         stdDeviation="1.7"
         result="result4"
         id="feGaussianBlur231-23-0" />
      <feDiffuseLighting
         surfaceScale="10"
         id="feDiffuseLighting235-75-7">
        <feDistantLight
           azimuth="225"
           elevation="45"
           id="feDistantLight233-9-8" />
      </feDiffuseLighting>
      <feBlend
         in2="SourceGraphic"
         mode="multiply"
         id="feBlend237-2-6" />
      <feComposite
         in2="SourceAlpha"
         operator="in"
         result="result3"
         id="feComposite239-2-8" />
      <feSpecularLighting
         in="result4"
         surfaceScale="5"
         specularExponent="17.89999962"
         id="feSpecularLighting243-8-8">
        <feDistantLight
           azimuth="225"
           elevation="45"
           id="feDistantLight241-9-4" />
      </feSpecularLighting>
      <feComposite
         in2="result3"
         operator="atop"
         id="feComposite245-7-3" />
    </filter>
    <filter
       inkscape:label="Button"
       inkscape:menu="Bevels"
       inkscape:menu-tooltip="Soft bevel, slightly depressed middle"
       style="color-interpolation-filters:sRGB"
       id="filter1245-3-1"
       x="-0.24598807"
       y="-1.1470379"
       width="1.4919761"
       height="3.2940759">
      <feGaussianBlur
         stdDeviation="2.3"
         in="SourceAlpha"
         result="result0"
         id="feGaussianBlur1219-6-4" />
      <feMorphology
         in="SourceAlpha"
         radius="6.6"
         result="result1"
         id="feMorphology1221-1-9" />
      <feGaussianBlur
         stdDeviation="8.9"
         in="result1"
         id="feGaussianBlur1223-2-2" />
      <feColorMatrix
         values="1 0 0 0 0 0 1 0 0 0 0 0 1 0 0 0 0 0 0.3 0"
         result="result91"
         id="feColorMatrix1225-9-0" />
      <feComposite
         in="result0"
         operator="out"
         result="result2"
         in2="result91"
         id="feComposite1227-3-6" />
      <feGaussianBlur
         stdDeviation="1.7"
         result="result4"
         id="feGaussianBlur1229-1-8" />
      <feDiffuseLighting
         surfaceScale="10"
         id="feDiffuseLighting1233-9-9">
        <feDistantLight
           azimuth="225"
           elevation="45"
           id="feDistantLight1231-4-2" />
      </feDiffuseLighting>
      <feBlend
         in2="SourceGraphic"
         mode="multiply"
         id="feBlend1235-7-6" />
      <feComposite
         in2="SourceAlpha"
         operator="in"
         result="result3"
         id="feComposite1237-8-6" />
      <feSpecularLighting
         in="result4"
         surfaceScale="5"
         specularExponent="17.89999962"
         id="feSpecularLighting1241-4-4">
        <feDistantLight
           azimuth="225"
           elevation="45"
           id="feDistantLight1239-5-9" />
      </feSpecularLighting>
      <feComposite
         in2="result3"
         operator="atop"
         id="feComposite1243-0-5" />
    </filter>
    <filter
       inkscape:collect="always"
       style="color-interpolation-filters:sRGB"
       id="filter1113-3-0"
       x="-0.0374376"
       y="-0.17457085"
       width="1.0748752"
       height="1.3491417">
      <feGaussianBlur
         inkscape:collect="always"
         stdDeviation="1.5447563"
         id="feGaussianBlur1115-6-4" />
    </filter>
    <filter
       style="color-interpolation-filters:sRGB"
       inkscape:label="Brilliance"
       id="filter14860"
       x="0"
       y="0"
       width="1"
       height="1">
      <feColorMatrix
         values="2 -0.5 -0.5 0 0 -0.5 2 -0.5 0 0 -0.5 -0.5 2 0 0 0 0 0 1 0 "
         id="feColorMatrix14858" />
    </filter>
  </defs>
  <g
     inkscape:label="Layer 1"
     inkscape:groupmode="layer"
     id="layer1">
    <g
       id="g6706"
       transform="matrix(0.26458333,0,0,0.26458333,-11.319781,-43.072395)"
       style="display:inline">
      <g
         id="g6084-1-7"
         style="display:inline"
         transform="translate(23.184273,147.15488)">
        <g
           id="g5896-0-1"
           transform="translate(4)"
           style="display:inline">
          <ellipse
             style="fill:#aa8800;stroke-width:0.693764;filter:url(#filter247-1-5)"
             id="path111-6-7"
             cx="94.105927"
             cy="46.808529"
             rx="76.671753"
             ry="28.305346" />
        </g>
        <text
           xml:space="preserve"
           style="font-size:29.3333px;fill:#aa8800;filter:url(#filter1245-3-1)"
           x="59.821518"
           y="58.461452"
           id="text303-32-2"><tspan
             sodipodi:role="line"
             id="tspan301-0-7"
             x="59.821518"
             y="58.461452"
             style="font-style:italic;font-variant:normal;font-weight:bold;font-stretch:normal;font-size:29.3333px;font-family:sans-serif;-inkscape-font-specification:'sans-serif Bold Italic'">Donate</tspan></text>
        <text
           xml:space="preserve"
           style="font-size:29.3333px;opacity:0.496667;mix-blend-mode:normal;fill:#ff6600;filter:url(#filter1113-3-0)"
           x="60.132893"
           y="59.309517"
           id="text303-3-6-2"><tspan
             sodipodi:role="line"
             id="tspan301-6-1-2"
             x="60.132893"
             y="59.309517"
             style="font-style:italic;font-variant:normal;font-weight:bold;font-stretch:normal;font-size:29.3333px;font-family:sans-serif;-inkscape-font-specification:'sans-serif Bold Italic';fill:#ff6600">Donate</tspan></text>
        <g
           id="g3892-5-6"
           transform="matrix(1,0,0,-1,17.344845,63.760311)">
          <path
             class="st0"
             d="m 29,10.2 c -0.7,-0.4 -1.6,-0.4 -2.4,0 l -5.6,3.3 -3.8,2.1 -5.5,3.3 c -0.7,0.4 -1.6,0.4 -2.4,0 L 5,16.3 C 4.3,15.9 3.8,15.1 3.8,14.2 v -5 C 3.8,8.4 4.2,7.6 5,7.1 L 9.3,4.6 c 0.7,-0.4 1.6,-0.4 2.4,0 L 16,7.2 c 0.7,0.4 1.2,1.2 1.2,2.1 v 3.3 L 21,10.4 V 7 C 21,6.2 20.6,5.4 19.8,4.9 l -8,-4.7 c -0.7,-0.4 -1.6,-0.4 -2.4,0 L 1.2,5 C 0.4,5.4 0,6.2 0,7 v 9.4 c 0,0.8 0.4,1.6 1.2,2.1 l 8.1,4.7 c 0.7,0.4 1.6,0.4 2.4,0 L 17.2,20 21,17.8 26.5,14.6 c 0.7,-0.4 1.6,-0.4 2.4,0 l 4.3,2.5 c 0.7,0.4 1.2,1.2 1.2,2.1 v 5 c 0,0.8 -0.4,1.6 -1.2,2.1 L 29,28.8 c -0.7,0.4 -1.6,0.4 -2.4,0 L 22.3,26.3 C 21.6,25.9 21.1,25.1 21.1,24.2 V 21 l -3.8,2.2 v 3.3 c 0,0.8 0.4,1.6 1.2,2.1 l 8.1,4.7 c 0.7,0.4 1.6,0.4 2.4,0 l 8.1,-4.7 c 0.7,-0.4 1.2,-1.2 1.2,-2.1 V 17 c 0,-0.8 -0.4,-1.6 -1.2,-2.1 z"
             id="path3890-2-1"
             style="fill:url(#SVGID_1_)" />
        </g>
      </g>
      <g
         style="clip-rule:evenodd;fill-rule:evenodd;filter:url(#filter14860);image-rendering:optimizeQuality;shape-rendering:geometricPrecision;text-rendering:geometricPrecision"
         id="g2399"
         transform="matrix(0.00546779,0,0,0.00546779,58.87299,182.85323)">
        <g
           id="Layer_x0020_1"
           inkscape:label="Layer 1"
           inkscape:groupmode="layer">
          <metadata
             id="CorelCorpID_0Corel-Layer" />
          <g
             id="_1421344023328">
            <path
               fill="#f7931a"
               fill-rule="nonzero"
               d="M 4030.06,2540.77 C 3756.82,3636.78 2646.74,4303.79 1550.6,4030.48 454.92,3757.24 -212.09,2647.09 61.27,1551.17 334.39,455.04 1444.47,-212.02 2540.27,61.22 3636.33,334.46 4303.3,1444.73 4030.03,2540.79 l 0.02,-0.02 z"
               id="path2382" />
            <path
               fill="#ffffff"
               fill-rule="nonzero"
               d="m 2947.77,1754.38 c 40.72,-272.26 -166.56,-418.61 -450,-516.24 l 91.95,-368.8 -224.5,-55.94 -89.51,359.09 c -59.02,-14.72 -119.63,-28.59 -179.87,-42.34 l 90.16,-361.46 -224.36,-55.94 -92,368.68 c -48.84,-11.12 -96.81,-22.11 -143.35,-33.69 l 0.26,-1.16 -309.59,-77.31 -59.72,239.78 c 0,0 166.56,38.18 163.05,40.53 90.91,22.69 107.35,82.87 104.62,130.57 l -104.74,420.15 c 6.26,1.59 14.38,3.89 23.34,7.49 -7.49,-1.86 -15.46,-3.89 -23.73,-5.87 l -146.81,588.57 c -11.11,27.62 -39.31,69.07 -102.87,53.33 2.25,3.26 -163.17,-40.72 -163.17,-40.72 l -111.46,256.98 292.15,72.83 c 54.35,13.63 107.61,27.89 160.06,41.3 l -92.9,373.03 224.24,55.94 92,-369.07 c 61.26,16.63 120.71,31.97 178.91,46.43 l -91.69,367.33 224.51,55.94 92.89,-372.33 c 382.82,72.45 670.67,43.24 791.83,-303.02 97.63,-278.78 -4.86,-439.58 -206.26,-544.44 146.69,-33.83 257.18,-130.31 286.64,-329.61 l -0.07,-0.05 z m -512.93,719.26 c -69.38,278.78 -538.76,128.08 -690.94,90.29 l 123.28,-494.2 c 152.17,37.99 640.17,113.17 567.67,403.91 z m 69.43,-723.3 c -63.29,253.58 -453.96,124.75 -580.69,93.16 l 111.77,-448.21 c 126.73,31.59 534.85,90.55 468.94,355.05 z"
               id="path2384" />
          </g>
        </g>
      </g>
    </g>
  </g>
</svg>
