<?xml version="1.0" encoding="UTF-8" standalone="no"?>
<!-- Uploaded to: SVG Repo, www.svgrepo.com, Generator: SVG Repo Mixer Tools -->

<svg
   width="100"
   height="100"
   viewBox="0 0 3 3"
   fill="none"
   version="1.1"
   id="svg53"
   sodipodi:docname="donateEthereum.svg"
   inkscape:version="1.2.2 (b0a8486541, 2022-12-01)"
   xml:space="preserve"
   xmlns:inkscape="http://www.inkscape.org/namespaces/inkscape"
   xmlns:sodipodi="http://sodipodi.sourceforge.net/DTD/sodipodi-0.dtd"
   xmlns:xlink="http://www.w3.org/1999/xlink"
   xmlns="http://www.w3.org/2000/svg"
   xmlns:svg="http://www.w3.org/2000/svg"><sodipodi:namedview
     id="namedview55"
     pagecolor="#505050"
     bordercolor="#ffffff"
     borderopacity="1"
     inkscape:showpageshadow="0"
     inkscape:pageopacity="0"
     inkscape:pagecheckerboard="1"
     inkscape:deskcolor="#505050"
     showgrid="false"
     inkscape:zoom="5.82"
     inkscape:cx="49.914089"
     inkscape:cy="50"
     inkscape:window-width="1536"
     inkscape:window-height="791"
     inkscape:window-x="0"
     inkscape:window-y="0"
     inkscape:window-maximized="1"
     inkscape:current-layer="g1438-9" /><g
     id="g3735"
     transform="translate(24.358488,-0.34101883)"><g
       id="g1438-9"
       transform="translate(-23.938599,0.30531484)"><g
         id="g2033"
         transform="matrix(0.15432002,0,0,0.15432002,-0.77096697,-0.29712683)"><path
           d="M 16.1315,3.71436 C 14.4172,3.71436 12.9029,4.57721 12,5.8915 11.0972,4.57721 9.58289,3.71436 7.86861,3.71436 5.10289,3.71436 2.85718,5.96007 2.85718,8.72578 2.85718,14.8344 12,20.3258 12,20.3258 c 0,0 9.1429,-5.4914 9.1429,-11.60002 0,-2.76571 -2.2457,-5.01142 -5.0114,-5.01142 z"
           fill="url(#paint0_radial)"
           id="path2-7"
           style="fill:url(#paint0_radial-3)" /><path
           opacity="0.5"
           d="m 18.2056,4.16016 c 2.7429,4.37142 0.2172,10.10854 -2.8171,11.73714 -3.3486,1.8 -5.64003,0.9543 -10.38288,-1.7371 2.70285,3.5828 6.99428,6.16 6.99428,6.16 0,0 9.1429,-5.4915 9.1429,-11.60004 0,-2.02286 -1.2058,-3.77143 -2.9372,-4.56 z"
           fill="url(#paint1_radial)"
           id="path4-3"
           style="fill:url(#paint1_radial-6)" /><path
           opacity="0.5"
           d="M 16.1315,3.71436 C 14.4172,3.71436 12.9029,4.57721 12,5.8915 11.0972,4.57721 9.58289,3.71436 7.86861,3.71436 5.10289,3.71436 2.85718,5.96007 2.85718,8.72578 2.85718,14.8344 12,20.3258 12,20.3258 c 0,0 9.1429,-5.4914 9.1429,-11.60002 0,-2.76571 -2.2457,-5.01142 -5.0114,-5.01142 z"
           fill="url(#paint2_radial)"
           id="path6-6"
           style="fill:#ffffff" /><path
           opacity="0.5"
           d="m 15.474247,12.495469 c -1.51351,-0.435817 -2.292529,-0.04802 -3.91293,0.584801 -1.7571135,-0.483735 -2.5361692,-1.032081 -4.1408364,-1.032081 -2.588877,0 -4.6827722,-2.7546032 -4.0981685,-0.638563 1.2483377,4.518502 8.7382189,8.875155 8.7382189,8.875155 0,0 7.417067,-4.822039 8.475727,-9.201436 0.447741,-1.8521855 -2.473153,2.157589 -5.062011,1.412124 z"
           fill="url(#paint3_radial)"
           id="path8-1"
           style="opacity:0.980989;fill:#e20000;stroke-width:0.846273"
           sodipodi:nodetypes="scsscss" /><path
           opacity="0.24"
           d="M 10.7486,5.74883 C 11.2514,6.93169 10.1371,8.5374 8.25714,9.33169 6.37714,10.126 4.45143,9.8174 3.94857,8.64026 3.44571,7.46312 4.56,5.85169 6.44,5.0574 8.32,4.26312 10.2457,4.56597 10.7486,5.74883 Z"
           fill="url(#paint4_radial)"
           id="path10-2"
           style="fill:url(#paint4_radial-2)" /><g
           id="g3717"
           transform="translate(-5.4004145,-8.5741877)"><text
             xml:space="preserve"
             style="font-style:italic;font-weight:bold;font-size:11.9308px;font-family:'Noto Serif Gujarati';-inkscape-font-specification:'Noto Serif Gujarati Bold Italic';opacity:0.992395;mix-blend-mode:normal;fill:#0000e2;stroke:#000000;stroke-width:0.0621399;filter:url(#filter3709)"
             x="13.56613"
             y="29.292774"
             id="text2635-7"><tspan
               sodipodi:role="line"
               id="tspan2633-8"
               style="font-size:11.9308px;fill:#0000e2;stroke-width:0.0621399"
               x="13.56613"
               y="29.292774">+</tspan></text><text
             xml:space="preserve"
             style="font-style:italic;font-weight:bold;font-size:11.9308px;font-family:'Noto Serif Gujarati';-inkscape-font-specification:'Noto Serif Gujarati Bold Italic';opacity:0.980989;fill:#eae6e9;stroke:#000000;stroke-width:0.0621399"
             x="13.513751"
             y="29.206629"
             id="text2635"><tspan
               sodipodi:role="line"
               id="tspan2633"
               style="font-size:11.9308px;stroke-width:0.0621399"
               x="13.513751"
               y="29.206629">+</tspan></text></g><g
           id="g3674"
           transform="translate(-4.6091315,-18.171432)"><text
             xml:space="preserve"
             style="font-style:italic;font-weight:bold;font-size:4.85874px;font-family:'Noto Serif Gujarati';-inkscape-font-specification:'Noto Serif Gujarati Bold Italic';opacity:0.980989;fill:#001cff;stroke:#000000;stroke-width:0.0253059;filter:url(#filter3666)"
             x="8.5954771"
             y="28.4916"
             id="text3519-9"><tspan
               sodipodi:role="line"
               id="tspan3517-4"
               style="fill:#001cff;stroke-width:0.0253059"
               x="8.5954771"
               y="28.4916">Donate</tspan></text><text
             xml:space="preserve"
             style="font-style:italic;font-weight:bold;font-size:4.85874px;font-family:'Noto Serif Gujarati';-inkscape-font-specification:'Noto Serif Gujarati Bold Italic';opacity:0.980989;fill:#fce94f;stroke:#000000;stroke-width:0.0253059"
             x="8.5641775"
             y="28.510344"
             id="text3519"><tspan
               sodipodi:role="line"
               id="tspan3517"
               style="stroke-width:0.0253059"
               x="8.5641775"
               y="28.510344">Donate</tspan></text></g><image
           preserveAspectRatio="none"
           inkscape:svg-dpi="96"
           width="6.0904217"
           height="9.9185905"
           xlink:href="data:image/svg+xml;base64,PD94bWwgdmVyc2lvbj0iMS4wIiBlbmNvZGluZz0iVVRGLTgiPz4KPCFET0NUWVBFIHN2ZyBQVUJM SUMgIi0vL1czQy8vRFREIFNWRyAxLjEvL0VOIiAiaHR0cDovL3d3dy53My5vcmcvR3JhcGhpY3Mv U1ZHLzEuMS9EVEQvc3ZnMTEuZHRkIj4KPCEtLSBDcmVhdG9yOiBDb3JlbERSQVcgMjAxOSAoNjQt Qml0KSAtLT4KPHN2ZyB4bWxucz0iaHR0cDovL3d3dy53My5vcmcvMjAwMC9zdmciIHhtbDpzcGFj ZT0icHJlc2VydmUiIHdpZHRoPSIxMDAlIiBoZWlnaHQ9IjEwMCUiIHZlcnNpb249IjEuMSIgc2hh cGUtcmVuZGVyaW5nPSJnZW9tZXRyaWNQcmVjaXNpb24iIHRleHQtcmVuZGVyaW5nPSJnZW9tZXRy aWNQcmVjaXNpb24iIGltYWdlLXJlbmRlcmluZz0ib3B0aW1pemVRdWFsaXR5IiBmaWxsLXJ1bGU9 ImV2ZW5vZGQiIGNsaXAtcnVsZT0iZXZlbm9kZCIKdmlld0JveD0iMCAwIDc4NC4zNyAxMjc3LjM5 IgogeG1sbnM6eGxpbms9Imh0dHA6Ly93d3cudzMub3JnLzE5OTkveGxpbmsiCiB4bWxuczp4b2Rt PSJodHRwOi8vd3d3LmNvcmVsLmNvbS9jb3JlbGRyYXcvb2RtLzIwMDMiPgogPGcgaWQ9IkxheWVy X3gwMDIwXzEiPgogIDxtZXRhZGF0YSBpZD0iQ29yZWxDb3JwSURfMENvcmVsLUxheWVyIi8+CiAg PGcgaWQ9Il8xNDIxMzk0MzQyNDAwIj4KICAgPGc+CiAgICA8cG9seWdvbiBmaWxsPSIjMzQzNDM0 IiBmaWxsLXJ1bGU9Im5vbnplcm8iIHBvaW50cz0iMzkyLjA3LDAgMzgzLjUsMjkuMTEgMzgzLjUs ODczLjc0IDM5Mi4wNyw4ODIuMjkgNzg0LjEzLDY1MC41NCAiLz4KICAgIDxwb2x5Z29uIGZpbGw9 IiM4QzhDOEMiIGZpbGwtcnVsZT0ibm9uemVybyIgcG9pbnRzPSIzOTIuMDcsMCAtMCw2NTAuNTQg MzkyLjA3LDg4Mi4yOSAzOTIuMDcsNDcyLjMzICIvPgogICAgPHBvbHlnb24gZmlsbD0iIzNDM0Mz QiIgZmlsbC1ydWxlPSJub256ZXJvIiBwb2ludHM9IjM5Mi4wNyw5NTYuNTIgMzg3LjI0LDk2Mi40 MSAzODcuMjQsMTI2My4yOCAzOTIuMDcsMTI3Ny4zOCA3ODQuMzcsNzI0Ljg5ICIvPgogICAgPHBv bHlnb24gZmlsbD0iIzhDOEM4QyIgZmlsbC1ydWxlPSJub256ZXJvIiBwb2ludHM9IjM5Mi4wNywx Mjc3LjM4IDM5Mi4wNyw5NTYuNTIgLTAsNzI0Ljg5ICIvPgogICAgPHBvbHlnb24gZmlsbD0iIzE0 MTQxNCIgZmlsbC1ydWxlPSJub256ZXJvIiBwb2ludHM9IjM5Mi4wNyw4ODIuMjkgNzg0LjEzLDY1 MC41NCAzOTIuMDcsNDcyLjMzICIvPgogICAgPHBvbHlnb24gZmlsbD0iIzM5MzkzOSIgZmlsbC1y dWxlPSJub256ZXJvIiBwb2ludHM9IjAsNjUwLjU0IDM5Mi4wNyw4ODIuMjkgMzkyLjA3LDQ3Mi4z MyAiLz4KICAgPC9nPgogIDwvZz4KIDwvZz4KPC9zdmc+Cg== "
           id="image2404"
           x="15.047351"
           y="10.933228" /></g></g></g><defs
     id="defs51"><radialGradient
       id="paint0_radial"
       cx="0"
       cy="0"
       r="1"
       gradientUnits="userSpaceOnUse"
       gradientTransform="matrix(12.462953,-7.0248057,5.5724508,9.8862791,9.38479,8.34769)"><stop
         offset="0.2479"
         stop-color="#FF0000"
         id="stop16" /><stop
         offset="0.8639"
         stop-color="#C20000"
         id="stop18" /></radialGradient><radialGradient
       id="paint1_radial"
       cx="0"
       cy="0"
       r="1"
       gradientUnits="userSpaceOnUse"
       gradientTransform="matrix(10.730158,-6.0481071,4.7977011,8.5117687,9.7385,7.47018)"><stop
         offset="0.2479"
         stop-color="#FF0000"
         id="stop21" /><stop
         offset="1"
         stop-color="#C20000"
         id="stop23" /></radialGradient><radialGradient
       id="paint2_radial"
       cx="0"
       cy="0"
       r="1"
       gradientUnits="userSpaceOnUse"
       gradientTransform="matrix(12.462953,-7.0248057,5.5724508,9.8862791,9.38479,8.34769)"><stop
         stop-color="white"
         stop-opacity="0.25"
         id="stop26" /><stop
         offset="1"
         stop-color="white"
         stop-opacity="0"
         id="stop28" /></radialGradient><radialGradient
       id="paint3_radial"
       cx="0"
       cy="0"
       r="1"
       gradientUnits="userSpaceOnUse"
       gradientTransform="matrix(9.3624204,-4.6263831,2.2860927,4.6263703,14.5277,13.2044)"><stop
         stop-color="#BD2719"
         stop-opacity="0.25"
         id="stop31" /><stop
         offset="1"
         stop-color="#BD2719"
         stop-opacity="0"
         id="stop33" /></radialGradient><radialGradient
       id="paint4_radial"
       cx="0"
       cy="0"
       r="1"
       gradientUnits="userSpaceOnUse"
       gradientTransform="matrix(3.4496436,-1.3721383,0.85235111,2.1428653,7.34746,7.19453)"><stop
         stop-color="white"
         id="stop36" /><stop
         offset="1"
         stop-color="white"
         stop-opacity="0"
         id="stop38" /></radialGradient><radialGradient
       id="paint5_radial"
       cx="0"
       cy="0"
       r="1"
       gradientUnits="userSpaceOnUse"
       gradientTransform="matrix(2.3281036,-2.0069714,1.246783,1.4462788,14.6004,6.84619)"><stop
         stop-color="white"
         id="stop41" /><stop
         offset="1"
         stop-color="white"
         stop-opacity="0"
         id="stop43" /></radialGradient><linearGradient
       id="paint6_linear"
       x1="13.8868"
       y1="26.8498"
       x2="15.6583"
       y2="2.9640801"
       gradientUnits="userSpaceOnUse"><stop
         stop-color="#860805"
         id="stop46" /><stop
         offset="1"
         stop-color="#BD2719"
         stop-opacity="0"
         id="stop48" /></linearGradient><radialGradient
       id="paint0_radial-3"
       cx="0"
       cy="0"
       r="1"
       gradientUnits="userSpaceOnUse"
       gradientTransform="matrix(12.462953,-7.0248057,5.5724508,9.8862791,9.38479,8.34769)"><stop
         offset="0.2479"
         stop-color="#FF0000"
         id="stop16-6" /><stop
         offset="0.8639"
         stop-color="#C20000"
         id="stop18-0" /></radialGradient><radialGradient
       id="paint1_radial-6"
       cx="0"
       cy="0"
       r="1"
       gradientUnits="userSpaceOnUse"
       gradientTransform="matrix(10.730158,-6.0481071,4.7977011,8.5117687,9.7385,7.47018)"><stop
         offset="0.2479"
         stop-color="#FF0000"
         id="stop21-2" /><stop
         offset="1"
         stop-color="#C20000"
         id="stop23-6" /></radialGradient><radialGradient
       id="paint2_radial-1"
       cx="0"
       cy="0"
       r="1"
       gradientUnits="userSpaceOnUse"
       gradientTransform="matrix(12.462953,-7.0248057,5.5724508,9.8862791,9.38479,8.34769)"><stop
         stop-color="white"
         stop-opacity="0.25"
         id="stop26-8" /><stop
         offset="1"
         stop-color="white"
         stop-opacity="0"
         id="stop28-7" /></radialGradient><radialGradient
       id="paint3_radial-9"
       cx="0"
       cy="0"
       r="1"
       gradientUnits="userSpaceOnUse"
       gradientTransform="matrix(9.3624204,-4.6263831,2.2860927,4.6263703,14.5277,13.2044)"><stop
         stop-color="#BD2719"
         stop-opacity="0.25"
         id="stop31-2" /><stop
         offset="1"
         stop-color="#BD2719"
         stop-opacity="0"
         id="stop33-0" /></radialGradient><radialGradient
       id="paint4_radial-2"
       cx="0"
       cy="0"
       r="1"
       gradientUnits="userSpaceOnUse"
       gradientTransform="matrix(3.4496436,-1.3721383,0.85235111,2.1428653,7.34746,7.19453)"><stop
         stop-color="white"
         id="stop36-3" /><stop
         offset="1"
         stop-color="white"
         stop-opacity="0"
         id="stop38-7" /></radialGradient><radialGradient
       id="paint5_radial-5"
       cx="0"
       cy="0"
       r="1"
       gradientUnits="userSpaceOnUse"
       gradientTransform="matrix(2.3281036,-2.0069714,1.246783,1.4462788,14.6004,6.84619)"><stop
         stop-color="white"
         id="stop41-9" /><stop
         offset="1"
         stop-color="white"
         stop-opacity="0"
         id="stop43-2" /></radialGradient><filter
       inkscape:collect="always"
       style="color-interpolation-filters:sRGB"
       id="filter3666"
       x="-0.050926969"
       y="-0.23747154"
       width="1.1018539"
       height="1.4749431"><feGaussianBlur
         inkscape:collect="always"
         stdDeviation="0.34279469"
         id="feGaussianBlur3668" /></filter><filter
       inkscape:collect="always"
       style="color-interpolation-filters:sRGB"
       id="filter3709"
       x="-0.15612022"
       y="-0.15612022"
       width="1.3122404"
       height="1.3122404"><feGaussianBlur
         inkscape:collect="always"
         stdDeviation="0.32000096"
         id="feGaussianBlur3711" /></filter></defs></svg>
